Tidy Data
…
---

class: yourturn

# Big Challenge

.pull-left[

### Challenge

.font120[Reshape the __bomber_mess__ data so it looks like:]

```
## # A tibble: 57 x 6
##    Type   MD    FY       FH   Gallons      Cost
##    <chr>  <chr> <chr> <int>     <int>     <int>
##  1 Bomber B-1   1996  26914  88594449  72753781
##  2 Bomber B-1   1997  25219  85484074  71297263
##  3 Bomber B-1   1998  24205  85259038  84026805
##  4 Bomber B-1   1999  23306  79323816  71848336
##  5 Bomber B-1   2000  25013  86230284  58439777
##  6 Bomber B-1   2001  25059  86892432  94946077
##  7 Bomber B-1   2002  26581  89198262  96458536
##  8 Bomber B-1   2003  21491  74485788  68650070
##  9 Bomber B-1   2004  28118 101397707 101895634
## 10 Bomber B-1   2005  21859  78410415 124816690
## # … with 47 more rows
```
…
